<svg xmlns="http://www.w3.org/2000/svg" viewBox="0 0 330.78 512">
  <defs>
    <style>
      .a {
        fill: #e60012;
      }
    </style>
  </defs>
  <g>
    <path class="a" d="M244.33,62.64V36.85l0-7.8h0v-.17c-20.62,6.5-32.44-10.62-59.72-4.36V67C211.9,56.62,223.71,72.15,244.33,62.64Z"/>
    <path class="a" d="M96.07,307.07h24.62v146.4h32.39V307.07h24.63V453.31h0v.16H210V307.07h24.7v146.4h41V244.54a2.19,2.19,0,0,0-2.66-2.18l-21,3.87-3.39.6v-56h24.49V162.48h-25.3a82.48,82.48,0,0,0-75.45-80.54h0V37.74L170.55,0H160.23l-1.91,37.74v44.2A82.53,82.53,0,0,0,82.8,162.48H57.56v28.31H82.05v47.39l0,8.67L57.7,242.36A2.19,2.19,0,0,0,55,244.54V453.47h41V307.07Zm125.31-74H200.43V200.73h20.95ZM122.06,134c-3.34-6.4-.89-15.24,5.44-19.66s14.29-2.86,17.62,3.53.89,15.18-5.51,19.67S125.39,140.38,122.06,134Zm8.3,66.74v32.38h-21V200.73Zm15.78,32.38V200.73h38.44v32.38Z"/>
    <polygon class="a" points="0 471.18 0 511.71 0 511.84 0 511.84 0 512 330.78 512 330.78 471.18 0 471.18"/>
  </g>
</svg>
